{
    "version": ["0"],
    "source": ["aws.autoscaling", "example.event"],
    "detail-type": ["EC2 Instance-terminate Lifecycle Action"],
    "detail": {
        "AutoScalingGroupName": ["${asg_name}"]
    }
}